{
    "$schema": "https://schema.management.azure.com/schemas/2015-01-01/deploymentParameters.json#",
    "contentVersion": "1.0.0.0",
    "parameters": {
        "storageAccounts_ne1diag_name": {
            "value": null
        },
        "virtualMachines_vagrant1_name": {
            "value": null
        },
        "virtualNetworks_ne1_vnet_name": {
            "value": null
        },
        "networkInterfaces_vagrant1628_name": {
            "value": null
        },
        "publicIPAddresses_vagrant1_ip_name": {
            "value": null
        },
        "networkSecurityGroups_vagrant1_nsg_name": {
            "value": null
        },
        "subnets_default_name": {
            "value": null
        },
        "securityRules_SSH_name": {
            "value": null
        },
        "virtualMachines_vagrant1_id": {
            "value": null
        }
    }
} 
